<?xml version="1.0" standalone="no"?>
<!DOCTYPE svg PUBLIC "-//W3C//DTD SVG 20010904//EN"
 "http://www.w3.org/TR/2001/REC-SVG-20010904/DTD/svg10.dtd">
<svg version="1.0" xmlns="http://www.w3.org/2000/svg"
 width="1920.000000pt" height="1080.000000pt" viewBox="0 0 1920.000000 1080.000000"
 preserveAspectRatio="xMidYMid meet">
<metadata>
Created by potrace 1.15, written by Peter Selinger 2001-2017
</metadata>
<g transform="translate(0.000000,1080.000000) scale(0.100000,-0.100000)"
fill="#000000bf" stroke="none">
<path d="M2928 7220 c-186 -34 -315 -106 -459 -257 -137 -145 -205 -299 -216
-488 -9 -173 37 -314 138 -428 62 -70 128 -112 209 -133 115 -29 220 -2 277
72 21 28 28 50 31 98 4 56 1 65 -22 94 -15 17 -60 47 -100 66 -141 68 -182
161 -141 320 20 75 56 136 121 203 75 76 147 108 246 108 69 0 81 -3 119 -30
88 -62 100 -126 54 -275 -15 -47 -103 -272 -195 -500 -183 -452 -204 -510
-215 -588 -16 -120 45 -222 157 -258 68 -22 435 -32 520 -15 113 24 178 94
178 190 0 122 -41 144 -272 149 -93 2 -168 6 -168 8 0 2 84 209 186 460 192
473 219 554 230 683 11 137 -28 252 -120 349 -106 114 -238 171 -410 177 -55
2 -122 0 -148 -5z"/>
<path d="M10101 7040 c-322 -45 -593 -268 -665 -547 -9 -33 -16 -72 -16 -86
l0 -25 -177 -4 c-167 -3 -181 -5 -234 -29 -63 -30 -93 -65 -109 -131 -15 -57
0 -119 36 -147 41 -32 113 -41 338 -41 l212 0 57 -82 c31 -46 115 -150 187
-233 211 -242 266 -336 277 -480 11 -138 -43 -279 -146 -383 -110 -112 -229
-158 -384 -149 -76 4 -99 10 -162 41 -206 102 -278 325 -175 541 44 92 125
175 241 246 54 33 113 78 133 99 59 66 61 157 2 216 -109 109 -325 47 -538
-155 -119 -111 -201 -244 -240 -390 -31 -112 -31 -316 0 -426 105 -369 455
-578 878 -525 222 27 397 111 543 259 241 245 304 578 170 902 -38 95 -100
187 -239 358 -66 81 -120 150 -120 153 0 3 73 8 163 11 272 9 392 46 511 158
129 120 183 299 145 481 -34 163 -177 304 -359 354 -68 18 -244 26 -329 14z
m220 -355 c153 -54 153 -222 -1 -282 -37 -14 -88 -18 -287 -21 l-243 -4 0 24
c1 35 34 101 75 146 109 122 320 185 456 137z"/>
<path d="M14735 6528 c-81 -28 -116 -76 -190 -259 l-47 -116 -85 -6 c-139 -8
-213 -61 -229 -162 -4 -33 -1 -54 12 -82 21 -43 49 -59 121 -70 l49 -8 -108
-265 c-65 -158 -111 -285 -114 -316 -12 -99 49 -179 156 -203 60 -14 366 -14
429 0 56 12 104 41 133 79 27 37 34 119 14 158 -27 52 -65 65 -208 71 l-127 6
97 237 97 238 72 0 c176 0 270 56 281 168 9 95 -36 137 -157 150 l-69 7 41 90
c33 73 41 101 42 152 0 52 -4 65 -25 88 -46 51 -117 67 -185 43z"/>
<path d="M4620 6330 c-212 -37 -425 -231 -495 -452 -89 -281 8 -564 223 -650
54 -21 73 -23 329 -26 353 -4 410 7 470 97 28 41 32 124 7 159 -36 51 -61 56
-329 62 -241 5 -252 6 -300 30 -90 45 -116 140 -75 271 24 76 75 149 130 185
46 31 125 43 159 24 30 -15 54 -75 47 -114 -8 -43 8 -103 35 -132 46 -49 160
-40 216 18 56 59 68 94 68 193 0 71 -5 100 -22 137 -71 155 -255 234 -463 198z"/>
<path d="M6098 6330 c-165 -28 -316 -120 -423 -260 -180 -235 -191 -563 -24
-744 80 -88 146 -112 329 -122 164 -9 277 7 368 51 280 138 429 582 285 847
-34 62 -125 148 -192 183 -95 48 -224 65 -343 45z m145 -324 c79 -32 117 -120
98 -225 -15 -78 -40 -130 -92 -186 -55 -59 -109 -79 -200 -73 -75 6 -105 21
-143 72 -32 42 -29 153 6 226 70 151 218 234 331 186z"/>
<path d="M7942 6325 c-60 -17 -99 -36 -158 -76 l-42 -29 -26 34 c-67 89 -221
84 -291 -8 -14 -19 -103 -222 -197 -453 -148 -362 -171 -426 -172 -475 -1 -50
2 -60 29 -88 79 -83 225 -55 299 57 14 21 73 155 132 298 114 278 155 353 220
398 92 64 214 39 214 -46 0 -17 -41 -135 -92 -262 -76 -191 -92 -239 -92 -285
-1 -89 51 -154 143 -180 48 -13 387 -13 450 1 100 21 161 87 161 173 0 103
-43 128 -226 134 l-132 4 91 222 c80 195 91 230 95 296 6 96 -20 162 -85 220
-77 68 -213 95 -321 65z"/>
<path d="M11779 6157 c-49 -14 -128 -57 -147 -80 -10 -12 -19 -8 -51 24 -83
78 -217 57 -275 -44 -31 -53 -728 -1772 -751 -1850 -21 -71 -14 -115 23 -150
94 -90 233 -45 309 100 17 32 114 266 218 520 l187 461 54 -43 c64 -53 99 -60
279 -60 204 1 284 35 398 171 106 125 169 289 183 472 21 279 -108 476 -321
488 -33 2 -81 -2 -106 -9z m31 -292 c41 -21 60 -63 60 -133 0 -147 -107 -340
-207 -373 -19 -6 -64 -9 -99 -7 -69 4 -107 25 -133 70 -13 23 -10 36 49 182
72 178 102 225 163 255 50 25 125 28 167 6z"/>
<path d="M13158 6160 c-165 -28 -316 -120 -423 -260 -180 -235 -191 -563 -24
-744 80 -88 146 -112 329 -122 164 -9 277 7 368 51 280 138 429 582 285 847
-34 62 -125 148 -192 183 -95 48 -224 65 -343 45z m145 -324 c79 -32 117 -120
98 -225 -15 -78 -40 -130 -92 -186 -55 -59 -109 -79 -200 -73 -75 6 -105 21
-143 72 -32 42 -29 153 6 226 70 151 218 234 331 186z"/>
</g>
</svg>
