<?xml version="1.0" standalone="no"?>
<!DOCTYPE svg PUBLIC "-//W3C//DTD SVG 20010904//EN"
 "http://www.w3.org/TR/2001/REC-SVG-20010904/DTD/svg10.dtd">
<svg version="1.0" xmlns="http://www.w3.org/2000/svg"
 width="927.000000pt" height="273.000000pt" viewBox="0 0 927.000000 273.000000"
 preserveAspectRatio="xMidYMid meet">
<metadata>
Created by potrace 1.16, written by Peter Selinger 2001-2019
</metadata>
<g transform="translate(0.000000,273.000000) scale(0.100000,-0.100000)"
fill="#000000bf" stroke="none">
<path d="M768 2401 c-162 -52 -310 -202 -359 -363 -17 -56 -21 -88 -17 -167 3
-86 8 -106 36 -164 20 -40 50 -81 78 -106 131 -115 324 -83 324 55 0 62 -6 71
-79 113 -74 44 -101 81 -101 138 0 70 29 133 89 194 57 58 101 79 166 79 42 0
94 -35 110 -74 20 -48 7 -91 -134 -450 -141 -356 -154 -396 -145 -455 9 -57
53 -107 107 -122 23 -6 114 -12 202 -13 134 -1 165 2 192 16 52 29 73 64 73
123 0 77 -14 86 -156 95 -63 5 -118 10 -120 13 -3 2 50 141 116 308 67 167
128 333 137 369 58 248 -102 431 -376 429 -54 0 -107 -7 -143 -18z"/>
<path d="M5545 2282 c-193 -57 -355 -221 -372 -375 l-5 -44 -123 -5 c-156 -7
-204 -31 -226 -110 -13 -49 12 -109 51 -119 14 -4 96 -7 182 -8 l156 -1 20
-32 c12 -18 75 -98 141 -178 145 -173 184 -245 185 -333 0 -100 -26 -161 -103
-238 -80 -79 -145 -105 -245 -97 -76 6 -130 33 -183 90 -51 57 -67 103 -60
183 8 109 59 181 192 272 71 49 115 101 115 135 0 33 -29 84 -57 99 -139 74
-423 -133 -494 -360 -23 -76 -28 -240 -9 -312 31 -114 126 -236 228 -292 213
-116 523 -76 704 91 124 114 182 245 182 407 0 158 -44 260 -193 450 -78 100
-79 100 -52 106 14 4 58 7 96 8 82 2 190 23 235 46 51 26 120 95 145 145 46
90 50 220 9 306 -27 56 -96 122 -162 152 -50 23 -72 26 -177 29 -93 2 -134 -1
-180 -15z m246 -245 c64 -43 62 -102 -4 -151 -26 -19 -45 -21 -199 -25 l-170
-3 7 23 c41 131 263 226 366 156z"/>
<path d="M8667 1930 c-23 -20 -47 -60 -72 -117 -20 -49 -44 -94 -53 -100 -9
-7 -33 -13 -54 -13 -81 0 -136 -42 -145 -109 -7 -54 14 -86 70 -103 l44 -13
-70 -175 c-83 -206 -89 -251 -42 -300 40 -41 79 -50 230 -50 116 0 136 3 175
23 50 25 70 55 70 107 -1 67 -42 90 -162 90 l-67 0 62 153 62 152 60 6 c129
12 175 46 175 129 0 57 -18 76 -84 89 -26 5 -49 11 -52 14 -3 3 4 24 16 47 12
24 24 66 27 94 5 49 4 54 -27 79 -46 40 -116 38 -163 -3z"/>
<path d="M1925 1812 c-161 -56 -279 -195 -306 -363 -26 -162 50 -329 169 -371
53 -18 423 -18 475 1 48 16 77 61 77 117 0 72 -13 77 -228 89 -113 6 -196 15
-209 23 -111 62 -19 312 114 312 30 0 36 -5 49 -36 8 -20 13 -43 10 -51 -9
-21 19 -80 45 -93 12 -7 39 -10 61 -7 137 18 162 236 40 337 -71 58 -198 76
-297 42z"/>
<path d="M2898 1811 c-81 -27 -136 -61 -195 -123 -63 -67 -100 -139 -119 -231
-31 -148 19 -293 122 -353 91 -53 314 -55 422 -3 91 45 184 171 211 289 16 71
13 189 -6 244 -22 60 -100 141 -162 169 -66 29 -198 33 -273 8z m185 -241 c52
-58 31 -177 -44 -244 -36 -33 -44 -36 -100 -36 -54 0 -64 3 -90 29 -23 23 -29
38 -29 71 0 79 52 164 122 199 56 29 103 22 141 -19z"/>
<path d="M4163 1816 c-22 -7 -55 -23 -73 -36 l-31 -22 -23 21 c-52 49 -154 47
-194 -4 -19 -24 -203 -460 -236 -558 -25 -75 -21 -111 15 -141 20 -17 42 -26
65 -26 43 0 106 31 126 62 8 13 50 106 94 208 90 210 121 258 181 279 37 13
44 13 67 -2 14 -10 26 -27 26 -38 0 -12 -25 -87 -55 -167 -66 -176 -73 -208
-51 -254 31 -64 60 -73 241 -73 132 0 166 3 192 18 45 24 63 54 63 108 0 68
-19 81 -133 90 -50 4 -93 8 -94 8 -1 1 24 63 54 139 67 165 77 235 44 300 -41
81 -172 123 -278 88z"/>
<path d="M6753 1709 c-23 -4 -59 -18 -81 -30 l-39 -23 -28 22 c-20 16 -41 22
-76 22 -80 0 -94 -20 -205 -290 -176 -431 -401 -995 -408 -1024 -21 -86 83
-147 165 -99 49 29 73 75 199 383 66 162 125 305 130 318 11 24 14 24 63 -12
25 -19 43 -21 155 -21 113 0 132 3 174 23 90 45 179 169 212 299 23 87 21 219
-4 286 -42 111 -143 169 -257 146z m19 -217 c49 -42 19 -186 -56 -269 -43 -47
-45 -48 -100 -47 -47 0 -61 4 -82 26 l-26 25 42 105 c49 123 71 154 124 172
43 15 72 11 98 -12z"/>
<path d="M7640 1707 c-30 -7 -77 -23 -105 -37 -68 -32 -175 -141 -207 -210
-76 -161 -57 -343 46 -438 62 -57 100 -67 256 -67 126 0 139 2 192 27 32 15
78 47 102 73 54 55 110 163 127 242 16 78 6 188 -21 246 -28 58 -109 131 -168
152 -64 21 -158 26 -222 12z m136 -235 c66 -53 56 -168 -21 -248 -48 -50 -94
-63 -157 -43 -60 19 -83 65 -67 137 13 61 64 132 111 155 43 22 107 21 134 -1z"/>
</g>
</svg>
